SHAP Visualization
…
shap_classic[, snps_classic] %>% head(30)

## # A tibble: 30 x 28
##    rs17636091 rs113028686 rs4932178 rs16945091 rs187815576 rs9826032 rs111990522
##         <dbl>       <dbl>     <dbl>      <dbl>       <dbl>     <dbl>       <dbl>
##  1     0.138       0.102    -0.0121          0           0         0           0
##  2     0.138       0.102    -0.0120          0           0         0           0
##  3     0.229       0.0486    0.0521          0           0         0           0
##  4     0.138       0.102    -0.0120          0           0         0           0
##  5     0.138       0.102    -0.0120          0           0         0           0
##  6     0.138       0.102    -0.0120          0           0         0           0
##  7     0.0603     -0.0557    0.309           0           0         0           0
##  8     0.138       0.102    -0.0119          0           0         0           0
##  9     0.229       0.0449    0.0536          0           0         0           0
## 10     0.0608     -0.0547    0.308           0           0         0           0
## #  with 20 more rows, and 21 more variables: rs2177407 <dbl>, rs2290202 <dbl>,
## #   rs12911192 <dbl>, rs6775778 <dbl>, rs9836600 <dbl>, rs76760258 <dbl>,
## #   rs8031684 <dbl>, rs1393786 <dbl>, rs61791718 <dbl>, rs17197552 <dbl>,
## #   rs116415933 <dbl>, rs35773450 <dbl>, rs139138366 <dbl>, rs77964675 <dbl>,
## #   rs11073964 <dbl>, rs111611688 <dbl>, rs113981869 <dbl>, rs116718733 <dbl>,
## #   rs142416384 <dbl>, rs188650245 <dbl>, rs76401139 <dbl>
…
shap_resAdj[, snps_resadj] %>% head(30)

## # A tibble: 30 x 28
##    rs116415933 rs188650245 rs139138366 rs4932178 rs77964675 rs35773450
##          <dbl>       <dbl>       <dbl>     <dbl>      <dbl>      <dbl>
##  1    0.0150       0.00385     0.00405  0.0121    -0.00268    0       
##  2    0            0.00222     0.00365  0.0135     0          0       
##  3   -0.000566     0.00332     0.00363  0         -0.00201   -0.000577
##  4   -0.000543     0.00393     0.00352 -0.000517   0          0.000355
##  5    0.00535      0.00527     0.00319  0         -0.00138   -0.000885
##  6    0.0117       0.00463     0.00391  0         -0.00143   -0.00109 
##  7    0.0140       0.00370     0.00591  0.00284    0          0       
##  8   -0.000698     0.00435     0.00303 -0.000333  -0.00267    0.00166 
##  9    0            0.00293     0.00364  0         -0.000727  -0.000903
## 10    0            0.00256     0.00309  0         -0.000808   0.000324
## #  with 20 more rows, and 22 more variables: rs187815576 <dbl>,
## #   rs76760258 <dbl>, rs2290202 <dbl>, rs113981869 <dbl>, rs1393786 <dbl>,
## #   rs111990522 <dbl>, rs116718733 <dbl>, rs17636091 <dbl>, rs8031684 <dbl>,
## #   rs113028686 <dbl>, rs11073964 <dbl>, rs17197552 <dbl>, rs61791718 <dbl>,
## #   rs16945091 <dbl>, rs111611688 <dbl>, rs9826032 <dbl>, rs12911192 <dbl>,
## #   rs76401139 <dbl>, rs2177407 <dbl>, rs142416384 <dbl>, rs6775778 <dbl>,
## #   rs9836600 <dbl>
…
